{
    "$schema": "http://json-schema.org/draft-07/schema",
    "$id": "http://example.com/example.json",
    "type": "object",
    "title": "The root schema",
    "description": "The root schema comprises the entire JSON document.",
    "default": {},
    "examples": [
        {
            "message-id": "51ad84d4-XXXXXXX-6b2ce5e8",
            "message": {
                "containers_id": 1,
                "container_row_version": 1
            }
        }
    ],
    "required": [
        "message-id",
        "message"
    ],
    "properties": {
        "message-id": {
            "$id": "#/properties/message-id",
            "type": "string",
            "title": "The message-id schema",
            "description": "This is a unique identifier of each message.",
            "default": "",
            "examples": [
                "51ad84d4-XXXXXXX-6b2ce5e8"
            ]
        },
        "message": {
            "$id": "#/properties/message",
            "type": "object",
            "title": "The message schema",
            "description": "This identifies that this section contains response message items.",
            "default": {},
            "examples": [
                {
                    "containers_id": 1,
                    "container_row_version": 1
                }
            ],
            "required": [
                "containers_id",
                "container_row_version"
            ],
            "properties": {
                "containers_id": {
                    "$id": "#/properties/message/properties/containers_id",
                    "type": "integer",
                    "title": "The containers_id schema",
                    "description": "This is a system generated id for a container assigned to a container.",
                    "default": 0,
                    "examples": [
                        1
                    ]
                },
                "container_row_version": {
                    "$id": "#/properties/message/properties/container_row_version",
                    "type": "integer",
                    "title": "The container_row_version schema",
                    "description": "This is a system generated number that is used to control updates to the record.",
                    "default": 0,
                    "examples": [
                        1
                    ]
                }
            },
            "additionalProperties": true
        }
    },
    "additionalProperties": true
}