{
    "$schema": "http://json-schema.org/draft-07/schema",
    "title": "Financial Transaction Shipment List Result",
    "type": "object",
    "examples": [
        {
            "message": {
                "items": [
                    {
                        "client_company_id": 1000,
                        "cost_is_unexpected": true,
                        "currency_type": "USD",
                        "financialtransactions_type": "TEST_FINTRANS_TYPE",
                        "load_name": "Test Load",
                        "memo": "This is a memo",
                        "organizations_id": 10003,
                        "transactions_amount": 102.9,
                        "tripfinancialtransactions_id": 10000,
                        "trips_id": 10000
                    },
                    {
                        "client_company_id": 32,
                        "cost_is_unexpected": true,
                        "currency_type": "USD",
                        "financialtransactions_type": "F147",
                        "load_name": "",
                        "memo": "This is a memo",
                        "organizations_id": 10003,
                        "transactions_amount": 102.9,
                        "tripfinancialtransactions_id": 10003,
                        "trips_id": 10000
                    }
                ],
                "pagination": {
                    "total": 2,
                    "limit": 3,
                    "offset": 0
                }
            },
            "message-id": "1a8eb33e-9db2-11eb-a8b3-0242ac130003"
        }
    ],
    "required": [
        "message",
        "message-id"
    ],
    "properties": {
        "message-id": {
            "$id": "#/properties/message-id",
            "type": "string",
            "title": "The message-id schema",
            "description": "An explanation about the purpose of this instance.",
            "default": "",
            "examples": [
                "1a8eb33e-9db2-11eb-a8b3-0242ac130003"
            ]
        },
        "message": {
            "$id": "#/properties/message",
            "type": "object",
            "title": "The message schema",
            "required": [
                "items",
                "pagination"
            ],
            "properties": {
                "items": {
                    "$id": "#/properties/message/properties/items",
                    "type": "array",
                    "title": "The items schema",
                    "additionalItems": true,
                    "items": {
                        "$id": "#/properties/message/properties/items/items",
                        "anyOf": [
                            {
                                "$id": "#/properties/message/properties/items/items/anyOf/0",
                                "type": "object",
                                "title": "The first anyOf schema",
                                "optional": [
                                    "tripfinancialtransactions_id",
                                    "organizations_id",
                                    "client_company_id",
                                    "trips_id",
                                    "financialtransactions_type",
                                    "currency_type",
                                    "transactions_amount",
                                    "transactions_timestamp",
                                    "created_by_requestor_username",
                                    "load_name",
                                    "cost_is_unexpected",
                                    "memo"
                                ],
                                "properties": {
                                    "tripfinancialtransactions_id": {
                                        "$id": "#/properties/message/properties/items/items/anyOf/0/properties/tripfinancialtransactions_id",
                                        "type": "integer",
                                        "title": "The tripfinancialtransactions_id schema"
                                    },
                                    "organizations_id": {
                                        "$id": "#/properties/message/properties/items/items/anyOf/0/properties/organizations_id",
                                        "type": "integer",
                                        "title": "The organizations_id schema"
                                    },
                                    "client_company_id": {
                                        "$id": "#/properties/message/properties/items/items/anyOf/0/properties/client_company_id",
                                        "type": "integer",
                                        "title": "The client_company_id schema"
                                    },
                                    "trips_id": {
                                        "$id": "#/properties/message/properties/items/items/anyOf/0/properties/trips_id",
                                        "type": "integer",
                                        "title": "The trips_id schema"
                                    },
                                    "financialtransactions_type": {
                                        "$id": "#/properties/message/properties/items/items/anyOf/0/properties/financialtransactions_type",
                                        "type": "string",
                                        "title": "The financialtransactions_type schema"
                                    },
                                    "currency_type": {
                                        "$id": "#/properties/message/properties/items/items/anyOf/0/properties/currency_type",
                                        "type": "string",
                                        "title": "The currency_type schema"
                                    },
                                    "transactions_amount": {
                                        "$id": "#/properties/message/properties/items/items/anyOf/0/properties/transactions_amount",
                                        "type": "number",
                                        "title": "The transactions_amount schema"
                                    },
                                    "transactions_timestamp": {
                                        "$id": "#/properties/message/properties/items/items/anyOf/0/properties/transactions_timestamp",
                                        "type": "string",
                                        "title": "The transactions_timestamp schema"
                                    },
                                    "created_by_requestor_username": {
                                        "$id": "#/properties/message/properties/items/items/anyOf/0/properties/created_by_requestor_username",
                                        "type": "string",
                                        "title": "The created_by_requestor_username schema"
                                    },
                                    "load_name": {
                                        "$id": "#/properties/message/properties/items/items/anyOf/0/properties/load_name",
                                        "type": "string",
                                        "title": "The load_name schema"
                                    },
                                    "cost_is_unexpected": {
                                        "$id": "#/properties/message/properties/items/items/anyOf/0/properties/cost_is_unexpected",
                                        "type": "boolean",
                                        "title": "The cost_is_unexpected schema"
                                    },
                                    "memo": {
                                        "$id": "#/properties/message/properties/items/items/anyOf/0/properties/memo",
                                        "type": "string",
                                        "title": "The memo schema"
                                    }
                                },
                                "additionalProperties": true
                            }
                        ]
                    }
                },
                "pagination": {
                    "$id": "#/properties/message/properties/pagination",
                    "type": "object",
                    "title": "The pagination schema",
                    "required": [
                        "total",
                        "limit",
                        "offset"
                    ],
                    "properties": {
                        "total": {
                            "$id": "#/properties/message/properties/pagination/properties/total",
                            "type": "integer",
                            "title": "The total schema"
                        },
                        "limit": {
                            "$id": "#/properties/message/properties/pagination/properties/limit",
                            "type": "integer",
                            "title": "The limit schema"
                        },
                        "offset": {
                            "$id": "#/properties/message/properties/pagination/properties/offset",
                            "type": "integer",
                            "title": "The offset schema"
                        }
                    },
                    "additionalProperties": true
                }
            },
            "additionalProperties": true
        }
    },
    "additionalProperties": true
}