{
    "$schema": "http://json-schema.org/draft-07/schema",
    "$id": "http://example.com/example.json",
    "type": "object",
    "title": "The root schema",
    "description": "The root schema comprises the entire JSON document.",
    "default": {},
    "examples": [
        {
            "message-id": "test-message-id-get",
            "message": {
                "trips_id": 1,
                "trips_row_version": 1,
                "organizations_id": 1,
                "client_company_id": 1,
                "pickup_location": "Hiram Saltmarsh",
                "drop_off_location": "Velvet Veldt",
                "trip_is_assigned": false,
                "load_weight": 2,
                "load_unit_of_measure": "METRIC_TONS",
                "client_company_name": "Client Company Name",
                "trip_notes": "Handle with care",
                "trip_type": "OUTSOURCED",
                "load_name": "HYT45x0917",
                "estimated_pickup_date": "2019-01-01",
                "estimated_delivery_date": "2019-01-01",
                "trip_status": "CREXXX",
                "estimated_delivery_days": 12,
                "estimated_total_days": 45,
                "estimated_return_date": null,
                "returned_timestamp": null,
                "shipments_id": 1,
                "first_estimated_delivery_date": "2020-02-02",
                "external_bill_of_lading": null,
                "return_yard": null,
                "created_by_date": "2020-07-30",
                "created_by_requestor_username": null,
                "updated_by_date": null,
                "updated_by_requestor_username": null
            }
        }
    ],
    "required": [
        "message-id",
        "message"
    ],
    "properties": {
        "message-id": {
            "$id": "#/properties/message-id",
            "type": "string",
            "title": "The message-id schema",
            "description": "An explanation about the purpose of this instance.",
            "default": "",
            "examples": [
                "test-message-id-get"
            ]
        },
        "message": {
            "$id": "#/properties/message",
            "type": "object",
            "title": "The message schema",
            "description": "An explanation about the purpose of this instance.",
            "default": {},
            "examples": [
                {
                    "trips_id": 1,
                    "trips_row_version": 1,
                    "organizations_id": 1,
                    "client_company_id": 1,
                    "pickup_location": "Hiram Saltmarsh",
                    "drop_off_location": "Velvet Veldt",
                    "trip_is_assigned": false,
                    "load_weight": 2,
                    "load_unit_of_measure": "METRIC_TONS",
                    "client_company_name": "Client Company Name",
                    "trip_notes": "Handle with care",
                    "trip_type": "OUTSOURCED",
                    "load_name": "HYT45x0917",
                    "estimated_pickup_date": "2019-01-01",
                    "estimated_delivery_date": "2019-01-01",
                    "trip_status": "CREXXX",
                    "estimated_delivery_days": 12,
                    "estimated_total_days": 45,
                    "estimated_return_date": null,
                    "returned_timestamp": null,
                    "shipments_id": 1,
                    "first_estimated_delivery_date": "2020-02-02",
                    "external_bill_of_lading": null,
                    "return_yard": null,
                    "created_by_date": "2020-07-30",
                    "created_by_requestor_username": null,
                    "updated_by_date": null,
                    "updated_by_requestor_username": null
                }
            ],
            "required": [
                "trips_id",
                "trips_row_version",
                "organizations_id",
                "client_company_id",
                "pickup_location",
                "drop_off_location",
                "trip_is_assigned",
                "load_weight",
                "load_unit_of_measure",
                "client_company_name",
                "trip_notes",
                "trip_type",
                "load_name",
                "estimated_pickup_date",
                "estimated_delivery_date",
                "trip_status",
                "estimated_delivery_days",
                "estimated_total_days",
                "estimated_return_date",
                "returned_timestamp",
                "shipments_id",
                "first_estimated_delivery_date",
                "external_bill_of_lading",
                "return_yard",
                "created_by_date",
                "created_by_requestor_username",
                "updated_by_date",
                "updated_by_requestor_username"
            ],
            "properties": {
                "trips_id": {
                    "$id": "#/properties/message/properties/trips_id",
                    "type": "integer",
                    "title": "The trips_id schema",
                    "description": "An explanation about the purpose of this instance.",
                    "default": 0,
                    "examples": [
                        1
                    ]
                },
                "trips_row_version": {
                    "$id": "#/properties/message/properties/trips_row_version",
                    "type": "integer",
                    "title": "The trips_row_version schema",
                    "description": "An explanation about the purpose of this instance.",
                    "default": 0,
                    "examples": [
                        1
                    ]
                },
                "organizations_id": {
                    "$id": "#/properties/message/properties/organizations_id",
                    "type": "integer",
                    "title": "The organizations_id schema",
                    "description": "An explanation about the purpose of this instance.",
                    "default": 0,
                    "examples": [
                        1
                    ]
                },
                "client_company_id": {
                    "$id": "#/properties/message/properties/client_company_id",
                    "type": "integer",
                    "title": "The client_company_id schema",
                    "description": "An explanation about the purpose of this instance.",
                    "default": 0,
                    "examples": [
                        1
                    ]
                },
                "pickup_location": {
                    "$id": "#/properties/message/properties/pickup_location",
                    "type": "string",
                    "title": "The pickup_location schema",
                    "description": "An explanation about the purpose of this instance.",
                    "default": "",
                    "examples": [
                        "Hiram Saltmarsh"
                    ]
                },
                "drop_off_location": {
                    "$id": "#/properties/message/properties/drop_off_location",
                    "type": "string",
                    "title": "The drop_off_location schema",
                    "description": "An explanation about the purpose of this instance.",
                    "default": "",
                    "examples": [
                        "Velvet Veldt"
                    ]
                },
                "trip_is_assigned": {
                    "$id": "#/properties/message/properties/trip_is_assigned",
                    "type": "boolean",
                    "title": "The trip_is_assigned schema",
                    "description": "An explanation about the purpose of this instance.",
                    "default": false,
                    "examples": [
                        false
                    ]
                },
                "load_weight": {
                    "$id": "#/properties/message/properties/load_weight",
                    "type": "integer",
                    "title": "The load_weight schema",
                    "description": "An explanation about the purpose of this instance.",
                    "default": 0,
                    "examples": [
                        2
                    ]
                },
                "load_unit_of_measure": {
                    "$id": "#/properties/message/properties/load_unit_of_measure",
                    "type": "string",
                    "title": "The load_unit_of_measure schema",
                    "description": "An explanation about the purpose of this instance.",
                    "default": "",
                    "examples": [
                        "METRIC_TONS"
                    ]
                },
                "client_company_name": {
                    "$id": "#/properties/message/properties/client_company_name",
                    "type": "string",
                    "title": "The client_company_name schema",
                    "description": "An explanation about the purpose of this instance.",
                    "default": "",
                    "examples": [
                        "Client Company Name"
                    ]
                },
                "trip_notes": {
                    "$id": "#/properties/message/properties/trip_notes",
                    "type": "string",
                    "title": "The trip_notes schema",
                    "description": "An explanation about the purpose of this instance.",
                    "default": "",
                    "examples": [
                        "Handle with care"
                    ]
                },
                "trip_type": {
                    "$id": "#/properties/message/properties/trip_type",
                    "type": "string",
                    "title": "The trip_type schema",
                    "description": "An explanation about the purpose of this instance.",
                    "default": "",
                    "examples": [
                        "OUTSOURCED"
                    ]
                },
                "load_name": {
                    "$id": "#/properties/message/properties/load_name",
                    "type": "string",
                    "title": "The load_name schema",
                    "description": "An explanation about the purpose of this instance.",
                    "default": "",
                    "examples": [
                        "HYT45x0917"
                    ]
                },
                "estimated_pickup_date": {
                    "$id": "#/properties/message/properties/estimated_pickup_date",
                    "type": "string",
                    "title": "The estimated_pickup_date schema",
                    "description": "An explanation about the purpose of this instance.",
                    "default": "",
                    "examples": [
                        "2019-01-01"
                    ]
                },
                "estimated_delivery_date": {
                    "$id": "#/properties/message/properties/estimated_delivery_date",
                    "type": "string",
                    "title": "The estimated_delivery_date schema",
                    "description": "An explanation about the purpose of this instance.",
                    "default": "",
                    "examples": [
                        "2019-01-01"
                    ]
                },
                "trip_status": {
                    "$id": "#/properties/message/properties/trip_status",
                    "type": "string",
                    "title": "The trip_status schema",
                    "description": "An explanation about the purpose of this instance.",
                    "default": "",
                    "examples": [
                        "CREXXX"
                    ]
                },
                "estimated_delivery_days": {
                    "$id": "#/properties/message/properties/estimated_delivery_days",
                    "type": "integer",
                    "title": "The estimated_delivery_days schema",
                    "description": "An explanation about the purpose of this instance.",
                    "default": 0,
                    "examples": [
                        12
                    ]
                },
                "estimated_total_days": {
                    "$id": "#/properties/message/properties/estimated_total_days",
                    "type": "integer",
                    "title": "The estimated_total_days schema",
                    "description": "An explanation about the purpose of this instance.",
                    "default": 0,
                    "examples": [
                        45
                    ]
                },
                "estimated_return_date": {
                    "$id": "#/properties/message/properties/estimated_return_date",
                    "type": "null",
                    "title": "The estimated_return_date schema",
                    "description": "An explanation about the purpose of this instance.",
                    "default": null,
                    "examples": [
                        null
                    ]
                },
                "returned_timestamp": {
                    "$id": "#/properties/message/properties/returned_timestamp",
                    "type": "null",
                    "title": "The returned_timestamp schema",
                    "description": "An explanation about the purpose of this instance.",
                    "default": null,
                    "examples": [
                        null
                    ]
                },
                "shipments_id": {
                    "$id": "#/properties/message/properties/shipments_id",
                    "type": "integer",
                    "title": "The shipments_id schema",
                    "description": "An explanation about the purpose of this instance.",
                    "default": 0,
                    "examples": [
                        1
                    ]
                },
                "first_estimated_delivery_date": {
                    "$id": "#/properties/message/properties/first_estimated_delivery_date",
                    "type": "string",
                    "title": "The first_estimated_delivery_date schema",
                    "description": "An explanation about the purpose of this instance.",
                    "default": "",
                    "examples": [
                        "2020-02-02"
                    ]
                },
                "external_bill_of_lading": {
                    "$id": "#/properties/message/properties/external_bill_of_lading",
                    "type": "null",
                    "title": "The external_bill_of_lading schema",
                    "description": "An explanation about the purpose of this instance.",
                    "default": null,
                    "examples": [
                        null
                    ]
                },
                "return_yard": {
                    "$id": "#/properties/message/properties/return_yard",
                    "type": "null",
                    "title": "The return_yard schema",
                    "description": "An explanation about the purpose of this instance.",
                    "default": null,
                    "examples": [
                        null
                    ]
                },
                "created_by_date": {
                    "$id": "#/properties/message/properties/created_by_date",
                    "type": "string",
                    "title": "The created_by_date schema",
                    "description": "An explanation about the purpose of this instance.",
                    "default": "",
                    "examples": [
                        "2020-07-30"
                    ]
                },
                "created_by_requestor_username": {
                    "$id": "#/properties/message/properties/created_by_requestor_username",
                    "type": "null",
                    "title": "The created_by_requestor_username schema",
                    "description": "An explanation about the purpose of this instance.",
                    "default": null,
                    "examples": [
                        null
                    ]
                },
                "updated_by_date": {
                    "$id": "#/properties/message/properties/updated_by_date",
                    "type": "null",
                    "title": "The updated_by_date schema",
                    "description": "An explanation about the purpose of this instance.",
                    "default": null,
                    "examples": [
                        null
                    ]
                },
                "updated_by_requestor_username": {
                    "$id": "#/properties/message/properties/updated_by_requestor_username",
                    "type": "null",
                    "title": "The updated_by_requestor_username schema",
                    "description": "An explanation about the purpose of this instance.",
                    "default": null,
                    "examples": [
                        null
                    ]
                }
            },
            "additionalProperties": true
        }
    },
    "additionalProperties": true
}