{
    "$schema": "http://json-schema.org/draft-07/schema",
    "$id": "http://example.com/example.json",
    "type": "object",
    "title": "The root schema",
    "description": "The root schema comprises the entire JSON document.",
    "default": {},
    "examples": [
        {
            "message-id": "51ad84d4-XXXXXXX-6b2ce5e8",
            "message": {
                "shipments_id": 1,
                "ship_row_version": 1,
                "organizations_id": 1,
                "client_company_id": 1,
                "client_company_name": "My Enterprises Ltd",
                "suppliers_id": 1,
                "supplier_name": "My Supplier Name",
                "shipment_status": "AT_XXXXX",
                "bill_of_lading": "WEXXXXXXXX58",
                "port_of_entry": "Mombasa_Kenya",
                "port_of_origin": "SOKHNA__EGYPT",
                "country_of_destination": "KENYA",
                "shipment_poe_eta": "2020-12-26",
                "consignment_weight": 17,
                "consignment_weight_unit_of_measure": "MT",
                "created_by_date": "2020-09-21",
                "created_by_requestor_username": "51ad84d4-XXXXXXX-6b2ce5e8",
                "updated_by_date": "2020-12-30",
                "updated_by_requestor_username": "d8b0e9d9-XXXXXXXX-f59910ef9d2b",
                "through_bill_of_lading": "TBL",
                "shipment_history": [
                    {
                        "shipment_poe_eta": "2020-06-30",
                        "created_by_date": "2020-05-06"
                    }
                ],
                "shipment_statuses_history": [
                    {
                        "shipmentstatushistory_id": 1,
                        "historic_status": "AT_XXXX",
                        "cognito_username": "d7266c8f-XXXXXXXX-3ee850338ea7",
                        "status_set_timestamp": "2020-05-06 01:33:36.987313+00"
                    }
                ],
                "containers": [
                    {
                        "containers_id": 1,
                        "container_row_version": 1,
                        "container_tag": "TAG 001",
                        "container_form_factor": "20",
                        "trips_id": 1,
                        "container_cargo_gross_weight": 20178,
                        "container_cargo_gross_unit_of_measure": "KGS",
                        "created_by_date": "2020-07-22",
                        "created_by_requestor_username": "d7266c8f-XXXXXXXX-3ee850338ea7",
                        "updated_by_date": "2020-11-12",
                        "updated_by_requestor_username": "e2cf79b8-XXXXXXXX-9f34dd5b67f0",
                        "cargo": [
                            {
                                "cargo_id": 1,
                                "cargo_row_version": 1,
                                "cargo_type": "Sand",
                                "cargo_gross_weight": 10130,
                                "cargo_gross_unit_of_measure": "KGS",
                                "cargo_quantity": 400,
                                "cargo_quantity_unit_of_measure": "bags",
                                "created_by_date": "2020-07-13",
                                "created_by_requestor_username": "33d44460-XXXXXXXX-83a09fe4bbcd",
                                "updated_by_date": "2020-07-16",
                                "updated_by_requestor_username": "33d44460-XXXXXXXX-83a09fe4bbcd",
                                "cargo_parent_type": "CONTAINER"
                            }
                        ]
                    }
                ],
                "cargo": [
                    {
                        "cargo_id": 1,
                        "cargo_row_version": 1,
                        "cargo_type": "Sand",
                        "containers_id": 1,
                        "cargo_gross_weight": 10130,
                        "cargo_gross_unit_of_measure": "KGS",
                        "cargo_quantity": 400,
                        "cargo_quantity_unit_of_measure": "bags",
                        "created_by_date": "2020-07-13",
                        "created_by_requestor_username": "33d44460-XXXXXXXX-83a09fe4bbcd",
                        "updated_by_date": "2020-07-16",
                        "updated_by_requestor_username": "33d44460-XXXXXXXX-83a09fe4bbcd",
                        "cargo_parent_type": "CONTAINER"
                    }
                ]
            }
        }
    ],
    "required": [
        "message-id",
        "message"
    ],
    "properties": {
        "message-id": {
            "$id": "#/properties/message-id",
            "type": "string",
            "title": "The message-id schema",
            "description": "This is a unique identifier of each message.",
            "default": "",
            "examples": [
                "51ad84d4-XXXXXXX-6b2ce5e8"
            ]
        },
        "message": {
            "$id": "#/properties/message",
            "type": "object",
            "title": "The message schema",
            "description": "This identifies that this section contains response message items.",
            "default": {},
            "examples": [
                {
                    "shipments_id": 1,
                    "ship_row_version": 1,
                    "organizations_id": 1,
                    "client_company_id": 1,
                    "client_company_name": "My Enterprises Ltd",
                    "suppliers_id": 1,
                    "supplier_name": "My Supplier Name",
                    "shipment_status": "AT_XXXXX",
                    "bill_of_lading": "WEXXXXXXXX58",
                    "port_of_entry": "Mombasa_Kenya",
                    "port_of_origin": "SOKHNA__EGYPT",
                    "country_of_destination": "KENYA",
                    "shipment_poe_eta": "2020-12-26",
                    "consignment_weight": 17,
                    "consignment_weight_unit_of_measure": "MT",
                    "created_by_date": "2020-09-21",
                    "created_by_requestor_username": "51ad84d4-XXXXXXX-6b2ce5e8",
                    "updated_by_date": "2020-12-30",
                    "updated_by_requestor_username": "d8b0e9d9-XXXXXXXX-f59910ef9d2b",
                    "through_bill_of_lading": "TBL",
                    "shipment_history": [
                        {
                            "shipment_poe_eta": "2020-06-30",
                            "created_by_date": "2020-05-06"
                        }
                    ],
                    "shipment_statuses_history": [
                        {
                            "shipmentstatushistory_id": 1,
                            "historic_status": "AT_XXXX",
                            "cognito_username": "d7266c8f-XXXXXXXX-3ee850338ea7",
                            "status_set_timestamp": "2020-05-06 01:33:36.987313+00"
                        }
                    ],
                    "containers": [
                        {
                            "containers_id": 1,
                            "container_row_version": 1,
                            "organizations_id": 1,
                            "container_tag": "TAG 001",
                            "container_form_factor": "20",
                            "trips_id": 1,
                            "container_cargo_gross_weight": 20178,
                            "container_cargo_gross_unit_of_measure": "KGS",
                            "created_by_date": "2020-07-22",
                            "created_by_requestor_username": "d7266c8f-XXXXXXXX-3ee850338ea7",
                            "updated_by_date": "2020-11-12",
                            "updated_by_requestor_username": "e2cf79b8-XXXXXXXX-9f34dd5b67f0",
                            "cargo": [
                                {
                                    "cargo_id": 1,
                                    "cargo_row_version": 1,
                                    "organizations_id": 1,
                                    "cargo_type": "Sand",
                                    "cargo_gross_weight": 10130,
                                    "cargo_gross_unit_of_measure": "KGS",
                                    "cargo_quantity": 400,
                                    "cargo_quantity_unit_of_measure": "bags",
                                    "created_by_date": "2020-07-13",
                                    "created_by_requestor_username": "33d44460-XXXXXXXX-83a09fe4bbcd",
                                    "updated_by_date": "2020-07-16",
                                    "updated_by_requestor_username": "33d44460-XXXXXXXX-83a09fe4bbcd",
                                    "cargo_parent_type": "CONTAINER"
                                }
                            ]
                        }
                    ],
                    "cargo": [
                        {
                            "cargo_id": 1,
                            "cargo_row_version": 1,
                            "cargo_type": "Sand",
                            "containers_id": 1,
                            "cargo_gross_weight": 10130,
                            "cargo_gross_unit_of_measure": "KGS",
                            "cargo_quantity": 400,
                            "cargo_quantity_unit_of_measure": "bags",
                            "created_by_date": "2020-07-13",
                            "created_by_requestor_username": "33d44460-XXXXXXXX-83a09fe4bbcd",
                            "updated_by_date": "2020-07-16",
                            "updated_by_requestor_username": "33d44460-XXXXXXXX-83a09fe4bbcd",
                            "cargo_parent_type": "CONTAINER"
                        }
                    ]
                }
            ],
            "required": [
                "shipments_id",
                "ship_row_version",
                "organizations_id",
                "client_company_id",
                "client_company_name",
                "shipment_status",
                "created_by_date",
                "created_by_requestor_username",
                "shipment_statuses_history"
            ],
            "properties": {
                "shipments_id": {
                    "$id": "#/properties/message/properties/shipments_id",
                    "type": "number",
                    "title": "The shipments_id schema",
                    "description": "This is a system generated id to make shipments unique.",
                    "default": 0,
                    "examples": [
                        1
                    ]
                },
                "ship_row_version": {
                    "$id": "#/properties/message/properties/ship_row_version",
                    "type": "number",
                    "title": "The ship_row_version schema",
                    "description": "This is a system generated number that is used to control updates to the record.",
                    "default": 0,
                    "examples": [
                        1
                    ]
                },
                "organizations_id": {
                    "$id": "#/properties/message/properties/organizations_id",
                    "type": "number",
                    "title": "The organizations_id schema",
                    "description": "This is a system generated id that is used to restrict access to customers data.",
                    "default": 0,
                    "examples": [
                        1
                    ]
                },
                "client_company_id": {
                    "$id": "#/properties/message/properties/client_company_id",
                    "type": "number",
                    "title": "The client_company_id schema",
                    "description": "This is a system generated id that is used identify a customer.",
                    "default": 0,
                    "examples": [
                        1
                    ]
                },
                "client_company_name": {
                    "$id": "#/properties/message/properties/client_company_name",
                    "type": "string",
                    "title": "The client_company_name schema",
                    "description": "This is the name the customer uses to identify itself to the public.",
                    "default": "",
                    "examples": [
                        "My Enterprises Ltd"
                    ]
                },
                "suppliers_id": {
                    "$id": "#/properties/message/properties/suppliers_id",
                    "type": "number",
                    "title": "The suppliers_id schema",
                    "description": "This is a system generated id that is used identify a company supplier.",
                    "default": 0,
                    "examples": [
                        1
                    ]
                },
                "supplier_name": {
                    "$id": "#/properties/message/properties/supplier_name",
                    "type": "string",
                    "title": "The supplier_name schema",
                    "description": "The name that is used by the supplier.",
                    "default": "",
                    "examples": [
                        "My Chemicals "
                    ]
                },
                "shipment_status": {
                    "$id": "#/properties/message/properties/shipment_status",
                    "type": "string",
                    "title": "The shipment_status schema",
                    "description": "This is the current state of the shipment.",
                    "default": "",
                    "examples": [
                        "AT_XXXXX"
                    ]
                },
                "bill_of_lading": {
                    "$id": "#/properties/message/properties/bill_of_lading",
                    "type": "string",
                    "title": "The bill_of_lading schema",
                    "description": "This is an externally provided value for identification of the shipment.",
                    "default": "",
                    "examples": [
                        "WEXXXXXXXX58"
                    ]
                },
                "port_of_entry": {
                    "$id": "#/properties/message/properties/port_of_entry",
                    "type": "string",
                    "title": "The port_of_entry schema",
                    "description": "This is the name of the port that the goods will enter.",
                    "default": "",
                    "examples": [
                        "Mombasa_Kenya"
                    ]
                },
                "port_of_origin": {
                    "$id": "#/properties/message/properties/port_of_origin",
                    "type": "string",
                    "title": "The port_of_origin schema",
                    "description": "This is the name of the port that the goods left.",
                    "default": "",
                    "examples": [
                        "SOKHNA__EGYPT"
                    ]
                },
                "country_of_destination": {
                    "$id": "#/properties/message/properties/country_of_destination",
                    "type": "string",
                    "title": "The country_of_destination schema",
                    "description": "This is the name of the country where the goods will be delivered.",
                    "default": "",
                    "examples": [
                        "KENYA"
                    ]
                },
                "shipment_poe_eta": {
                    "$id": "#/properties/message/properties/shipment_poe_eta",
                    "type": "string",
                    "title": "The shipment_poe_eta schema",
                    "description": "Approximately when the cargo will arrive at the port of entry.",
                    "default": "",
                    "examples": [
                        "2020-12-26"
                    ]
                },
                "consignment_weight": {
                    "$id": "#/properties/message/properties/consignment_weight",
                    "type": "number",
                    "title": "The consignment_weight schema",
                    "description": "This is the total gross weight for the shipment, including the product and packaging.",
                    "default": 0,
                    "examples": [
                        17
                    ]
                },
                "consignment_weight_unit_of_measure": {
                    "$id": "#/properties/message/properties/consignment_weight_unit_of_measure",
                    "type": "string",
                    "title": "The consignment_weight_unit_of_measure schema",
                    "description": "What measurement is used for the weight supplied.",
                    "default": "",
                    "examples": [
                        "MT"
                    ]
                },
                "created_by_date": {
                    "$id": "#/properties/message/properties/created_by_date",
                    "type": "string",
                    "title": "The created_by_date schema",
                    "description": "When the user entry was entered in the system.",
                    "default": "",
                    "examples": [
                        "2020-09-21"
                    ]
                },
                "created_by_requestor_username": {
                    "$id": "#/properties/message/properties/created_by_requestor_username",
                    "type": "string",
                    "title": "The created_by_requestor_username schema",
                    "description": "The Cognito username for the person who is requesting the users creation.",
                    "default": "",
                    "examples": [
                        "51ad84d4-XXXXXXX-6b2ce5e8"
                    ]
                },
                "updated_by_date": {
                    "$id": "#/properties/message/properties/updated_by_date",
                    "type": "string",
                    "title": "The updated_by_date schema",
                    "description": "When the user entry was last updated in the system.",
                    "default": "",
                    "examples": [
                        "2020-12-30"
                    ]
                },
                "updated_by_requestor_username": {
                    "$id": "#/properties/message/properties/updated_by_requestor_username",
                    "type": "string",
                    "title": "The updated_by_requestor_username schema",
                    "description": "The Cognito username for the person who is requesting the users update.",
                    "default": "",
                    "examples": [
                        "d8b0e9d9-XXXXXXXX-f59910ef9d2b"
                    ]
                },
                "through_bill_of_lading": {
                    "$id": "#/properties/message/properties/through_bill_of_lading",
                    "type": "string",
                    "title": "The through_bill_of_lading schema",
                    "description": "The external identifier for paper working covering empty containers.",
                    "default": "",
                    "examples": [
                        "TBL"
                    ]
                },
                "shipment_history": {
                    "$id": "#/properties/message/properties/shipment_history",
                    "type": "array",
                    "title": "The shipment_history schema",
                    "description": "This identifies that this section contains shipment history items",
                    "default": [],
                    "examples": [
                        [
                            {
                                "shipment_poe_eta": "2020-06-30",
                                "created_by_date": "2020-05-06"
                            }
                        ]
                    ],
                    "additionalItems": true,
                    "items": {
                        "$id": "#/properties/message/properties/shipment_history/items",
                        "anyOf": [
                            {
                                "$id": "#/properties/message/properties/shipment_history/items/anyOf/0",
                                "type": "object",
                                "title": "The first anyOf schema",
                                "description": "Instance of a shipment history.",
                                "default": {},
                                "examples": [
                                    {
                                        "shipment_poe_eta": "2020-06-30",
                                        "created_by_date": "2020-05-06"
                                    }
                                ],
                                "required": [
                                    "shipment_poe_eta",
                                    "created_by_date"
                                ],
                                "properties": {
                                    "shipment_poe_eta": {
                                        "$id": "#/properties/message/properties/shipment_history/items/anyOf/0/properties/shipment_poe_eta",
                                        "type": "string",
                                        "title": "The shipment_poe_eta schema",
                                        "description": "Approximately when the cargo will arrive at the port of entry.",
                                        "default": "",
                                        "examples": [
                                            "2020-06-30"
                                        ]
                                    },
                                    "created_by_date": {
                                        "$id": "#/properties/message/properties/shipment_history/items/anyOf/0/properties/created_by_date",
                                        "type": "string",
                                        "title": "The created_by_date schema",
                                        "description": "When the user entry was entered in the system.",
                                        "default": "",
                                        "examples": [
                                            "2020-05-06"
                                        ]
                                    }
                                },
                                "additionalProperties": true
                            }
                        ]
                    }
                },
                "shipment_statuses_history": {
                    "$id": "#/properties/message/properties/shipment_statuses_history",
                    "type": "array",
                    "title": "The shipment_statuses_history schema",
                    "description": "This identifies that this section contains shipment statuses history items.",
                    "default": [],
                    "examples": [
                        [
                            {
                                "shipmentstatushistory_id": 1,
                                "historic_status": "AT_XXXX",
                                "cognito_username": "d7266c8f-XXXXXXXX-3ee850338ea7",
                                "status_set_timestamp": "2020-05-06 01:33:36.987313+00"
                            }
                        ]
                    ],
                    "additionalItems": true,
                    "items": {
                        "$id": "#/properties/message/properties/shipment_statuses_history/items",
                        "anyOf": [
                            {
                                "$id": "#/properties/message/properties/shipment_statuses_history/items/anyOf/0",
                                "type": "object",
                                "title": "The first anyOf schema",
                                "description": "Instance of a shipment statuses history.",
                                "default": {},
                                "examples": [
                                    {
                                        "shipmentstatushistory_id": 1,
                                        "historic_status": "AT_XXXX",
                                        "cognito_username": "d7266c8f-XXXXXXXX-3ee850338ea7",
                                        "status_set_timestamp": "2020-05-06 01:33:36.987313+00"
                                    }
                                ],
                                "required": [
                                    "shipmentstatushistory_id",
                                    "historic_status",
                                    "cognito_username",
                                    "status_set_timestamp"
                                ],
                                "properties": {
                                    "shipmentstatushistory_id": {
                                        "$id": "#/properties/message/properties/shipment_statuses_history/items/anyOf/0/properties/shipmentstatushistory_id",
                                        "type": "number",
                                        "title": "The shipmentstatushistory_id schema",
                                        "description": "This is a system generated id to make shipment status history unique.",
                                        "default": 0,
                                        "examples": [
                                            1
                                        ]
                                    },
                                    "historic_status": {
                                        "$id": "#/properties/message/properties/shipment_statuses_history/items/anyOf/0/properties/historic_status",
                                        "type": "string",
                                        "title": "The historic_status schema",
                                        "description": "The status at the time this record was created.",
                                        "default": "",
                                        "examples": [
                                            "AT_XXXX"
                                        ]
                                    },
                                    "cognito_username": {
                                        "$id": "#/properties/message/properties/shipment_statuses_history/items/anyOf/0/properties/cognito_username",
                                        "type": "string",
                                        "title": "The cognito_username schema",
                                        "description": "The Cognito username for the person who created the shipment record.",
                                        "default": "",
                                        "examples": [
                                            "d7266c8f-XXXXXXXX-3ee850338ea7"
                                        ]
                                    },
                                    "status_set_timestamp": {
                                        "$id": "#/properties/message/properties/shipment_statuses_history/items/anyOf/0/properties/status_set_timestamp",
                                        "type": "string",
                                        "title": "The status_set_timestamp schema",
                                        "description": "This is when the record was created.",
                                        "default": "",
                                        "examples": [
                                            "2020-05-06 01:33:36.987313+00"
                                        ]
                                    }
                                },
                                "additionalProperties": true
                            }
                        ]
                    }
                },
                "containers": {
                    "$id": "#/properties/message/properties/containers",
                    "type": "array",
                    "title": "The containers schema",
                    "description": "This identifies that this section contains shipment containers items.",
                    "default": [],
                    "examples": [
                        [
                            {
                                "containers_id": 1,
                                "container_row_version": 1,
                                "container_tag": "TAG 001",
                                "container_form_factor": "20",
                                "trips_id": 1,
                                "container_cargo_gross_weight": 20178,
                                "container_cargo_gross_unit_of_measure": "KGS",
                                "created_by_date": "2020-07-22",
                                "created_by_requestor_username": "d7266c8f-XXXXXXXX-3ee850338ea7",
                                "updated_by_date": "2020-11-12",
                                "updated_by_requestor_username": "e2cf79b8-XXXXXXXX-9f34dd5b67f0",
                                "cargo": [
                                    {
                                        "cargo_id": 1,
                                        "cargo_row_version": 1,
                                        "cargo_type": "Sand",
                                        "cargo_gross_weight": 10130,
                                        "cargo_gross_unit_of_measure": "KGS",
                                        "cargo_quantity": 400,
                                        "cargo_quantity_unit_of_measure": "bags",
                                        "created_by_date": "2020-07-13",
                                        "created_by_requestor_username": "33d44460-XXXXXXXX-83a09fe4bbcd",
                                        "updated_by_date": "2020-07-16",
                                        "updated_by_requestor_username": "33d44460-XXXXXXXX-83a09fe4bbcd",
                                        "cargo_parent_type": "CONTAINER"
                                    }
                                ]
                            }
                        ]
                    ],
                    "additionalItems": true,
                    "items": {
                        "$id": "#/properties/message/properties/containers/items",
                        "anyOf": [
                            {
                                "$id": "#/properties/message/properties/containers/items/anyOf/0",
                                "type": "object",
                                "title": "The first anyOf schema",
                                "description": "An instance of shipment containers.",
                                "default": {},
                                "examples": [
                                    {
                                        "containers_id": 1,
                                        "container_row_version": 1,
                                        "container_tag": "TAG 001",
                                        "container_form_factor": "20",
                                        "trips_id": 1,
                                        "container_cargo_gross_weight": 20178,
                                        "container_cargo_gross_unit_of_measure": "KGS",
                                        "created_by_date": "2020-07-22",
                                        "created_by_requestor_username": "d7266c8f-XXXXXXXX-3ee850338ea7",
                                        "updated_by_date": "2020-11-12",
                                        "updated_by_requestor_username": "e2cf79b8-XXXXXXXX-9f34dd5b67f0",
                                        "cargo": [
                                            {
                                                "cargo_id": 1,
                                                "cargo_row_version": 1,
                                                "cargo_type": "Sand",
                                                "cargo_gross_weight": 10130,
                                                "cargo_gross_unit_of_measure": "KGS",
                                                "cargo_quantity": 400,
                                                "cargo_quantity_unit_of_measure": "bags",
                                                "created_by_date": "2020-07-13",
                                                "created_by_requestor_username": "33d44460-XXXXXXXX-83a09fe4bbcd",
                                                "updated_by_date": "2020-07-16",
                                                "updated_by_requestor_username": "33d44460-XXXXXXXX-83a09fe4bbcd",
                                                "cargo_parent_type": "CONTAINER"
                                            }
                                        ]
                                    }
                                ],
                                "required": [
                                    "containers_id",
                                    "container_row_version",
                                    "container_tag",
                                    "created_by_date",
                                    "created_by_requestor_username"
                                ],
                                "properties": {
                                    "containers_id": {
                                        "$id": "#/properties/message/properties/containers/items/anyOf/0/properties/containers_id",
                                        "type": "number",
                                        "title": "The containers_id schema",
                                        "description": "This is a system generated id for a container assigned to a container.",
                                        "default": 0,
                                        "examples": [
                                            1
                                        ]
                                    },
                                    "container_row_version": {
                                        "$id": "#/properties/message/properties/containers/items/anyOf/0/properties/container_row_version",
                                        "type": "number",
                                        "title": "The container_row_version schema",
                                        "description": "This is a system generated number that is used to control updates to the record.",
                                        "default": 0,
                                        "examples": [
                                            1
                                        ]
                                    },
                                    "container_tag": {
                                        "$id": "#/properties/message/properties/containers/items/anyOf/0/properties/container_tag",
                                        "type": "string",
                                        "title": "The container_tag schema",
                                        "description": "The external identifier used to identify the container.",
                                        "default": "",
                                        "examples": [
                                            "TAG 001"
                                        ]
                                    },
                                    "container_form_factor": {
                                        "$id": "#/properties/message/properties/containers/items/anyOf/0/properties/container_form_factor",
                                        "type": "string",
                                        "title": "The container_form_factor schema",
                                        "description": "The length of the container in feet.",
                                        "default": 0,
                                        "examples": [
                                            20
                                        ]
                                    },
                                    "trips_id": {
                                        "$id": "#/properties/message/properties/containers/items/anyOf/0/properties/trips_id",
                                        "type": "number",
                                        "title": "The trips_id schema",
                                        "description": "This is the system generated id that identifies the trip.",
                                        "default": 0,
                                        "examples": [
                                            1
                                        ]
                                    },
                                    "container_cargo_gross_weight": {
                                        "$id": "#/properties/message/properties/containers/items/anyOf/0/properties/container_cargo_gross_weight",
                                        "type": "number",
                                        "title": "The container_cargo_gross_weight schema",
                                        "description": "The gross weight per container, NOT including the container weight (tare).",
                                        "default": 0,
                                        "examples": [
                                            20178
                                        ]
                                    },
                                    "container_cargo_gross_unit_of_measure": {
                                        "$id": "#/properties/message/properties/containers/items/anyOf/0/properties/container_cargo_gross_unit_of_measure",
                                        "type": "string",
                                        "title": "The container_cargo_gross_unit_of_measure schema",
                                        "description": "What measurement is used for the weight supplied.",
                                        "default": "",
                                        "examples": [
                                            "KGS"
                                        ]
                                    },
                                    "created_by_date": {
                                        "$id": "#/properties/message/properties/containers/items/anyOf/0/properties/created_by_date",
                                        "type": "string",
                                        "title": "The created_by_date schema",
                                        "description": "When the user entry was entered in the system.",
                                        "default": "",
                                        "examples": [
                                            "2020-07-22"
                                        ]
                                    },
                                    "created_by_requestor_username": {
                                        "$id": "#/properties/message/properties/containers/items/anyOf/0/properties/created_by_requestor_username",
                                        "type": "string",
                                        "title": "The created_by_requestor_username schema",
                                        "description": "The Cognito username for the person who is requesting the users creation.",
                                        "default": "",
                                        "examples": [
                                            "migration"
                                        ]
                                    },
                                    "updated_by_date": {
                                        "$id": "#/properties/message/properties/containers/items/anyOf/0/properties/updated_by_date",
                                        "type": "string",
                                        "title": "The updated_by_date schema",
                                        "description": "When the user entry was last updated in the system.",
                                        "default": "",
                                        "examples": [
                                            "2020-11-12"
                                        ]
                                    },
                                    "updated_by_requestor_username": {
                                        "$id": "#/properties/message/properties/containers/items/anyOf/0/properties/updated_by_requestor_username",
                                        "type": "string",
                                        "title": "The updated_by_requestor_username schema",
                                        "description": "The Cognito username for the person who is requesting the users update.",
                                        "default": "",
                                        "examples": [
                                            "e2cf79b8-XXXXXXXX-9f34dd5b67f0"
                                        ]
                                    },
                                    "cargo": {
                                        "$id": "#/properties/message/properties/containers/items/anyOf/0/properties/cargo",
                                        "type": "array",
                                        "title": "The cargo schema",
                                        "description": "This identifies that this section contains shipment container cargo items",
                                        "default": [],
                                        "examples": [
                                            [
                                                {
                                                    "cargo_id": 1,
                                                    "cargo_row_version": 1,
                                                    "cargo_type": "Sand",
                                                    "cargo_gross_weight": 10130,
                                                    "cargo_gross_unit_of_measure": "KGS",
                                                    "cargo_quantity": 400,
                                                    "cargo_quantity_unit_of_measure": "bags",
                                                    "created_by_date": "2020-07-13",
                                                    "created_by_requestor_username": "33d44460-XXXXXXXX-83a09fe4bbcd",
                                                    "updated_by_date": "2020-07-16",
                                                    "updated_by_requestor_username": "33d44460-XXXXXXXX-83a09fe4bbcd",
                                                    "cargo_parent_type": "CONTAINER"
                                                }
                                            ]
                                        ],
                                        "items": {
                                            "$id": "#/properties/message/properties/containers/items/anyOf/0/properties/cargo/items",
                                            "anyOf": [
                                                {
                                                    "$id": "#/properties/message/properties/containers/items/anyOf/0/properties/cargo/items/anyOf/0",
                                                    "type": "object",
                                                    "title": "The first anyOf schema",
                                                    "description": "An nstance of shipment container cargo.",
                                                    "default": {},
                                                    "examples": [
                                                        {
                                                            "cargo_id": 1,
                                                            "cargo_row_version": 1,
                                                            "cargo_type": "Sand",
                                                            "cargo_gross_weight": 10130,
                                                            "cargo_gross_unit_of_measure": "KGS",
                                                            "cargo_quantity": 400,
                                                            "cargo_quantity_unit_of_measure": "bags",
                                                            "created_by_date": "2020-07-13",
                                                            "created_by_requestor_username": "33d44460-XXXXXXXX-83a09fe4bbcd",
                                                            "updated_by_date": "2020-07-16",
                                                            "updated_by_requestor_username": "33d44460-XXXXXXXX-83a09fe4bbcd",
                                                            "cargo_parent_type": "CONTAINER"
                                                        }
                                                    ],
                                                    "required": [
                                                        "cargo_id",
                                                        "cargo_row_version",
                                                        "cargo_type",
                                                        "created_by_date",
                                                        "created_by_requestor_username",
                                                        "cargo_parent_type"
                                                    ],
                                                    "properties": {
                                                        "cargo_id": {
                                                            "$id": "#/properties/message/properties/containers/items/anyOf/0/properties/cargo/items/anyOf/0/properties/cargo_id",
                                                            "type": "number",
                                                            "title": "The cargo_id schema",
                                                            "description": "This is a system generated id for cargo being shipped.",
                                                            "default": 0,
                                                            "examples": [
                                                                1
                                                            ]
                                                        },
                                                        "cargo_row_version": {
                                                            "$id": "#/properties/message/properties/containers/items/anyOf/0/properties/cargo/items/anyOf/0/properties/cargo_row_version",
                                                            "type": "number",
                                                            "title": "The cargo_row_version schema",
                                                            "description": "This is a system generated number that is used to control updates to the record.",
                                                            "default": 0,
                                                            "examples": [
                                                                6
                                                            ]
                                                        },
                                                        "cargo_type": {
                                                            "$id": "#/properties/message/properties/containers/items/anyOf/0/properties/cargo/items/anyOf/0/properties/cargo_type",
                                                            "type": "string",
                                                            "title": "The cargo_type schema",
                                                            "description": "A general name of what good or product is being conveyed.",
                                                            "default": "",
                                                            "examples": [
                                                                "Sand"
                                                            ]
                                                        },
                                                        "cargo_gross_weight": {
                                                            "$id": "#/properties/message/properties/containers/items/anyOf/0/properties/cargo/items/anyOf/0/properties/cargo_gross_weight",
                                                            "type": "number",
                                                            "title": "The cargo_gross_weight schema",
                                                            "description": "The gross weight of the cargo.",
                                                            "default": 0,
                                                            "examples": [
                                                                10130
                                                            ]
                                                        },
                                                        "cargo_gross_unit_of_measure": {
                                                            "$id": "#/properties/message/properties/containers/items/anyOf/0/properties/cargo/items/anyOf/0/properties/cargo_gross_unit_of_measure",
                                                            "type": "string",
                                                            "title": "The cargo_gross_unit_of_measure schema",
                                                            "description": "What measurement is used for the weight supplied.",
                                                            "default": "",
                                                            "examples": [
                                                                "KGS"
                                                            ]
                                                        },
                                                        "cargo_quantity": {
                                                            "$id": "#/properties/message/properties/containers/items/anyOf/0/properties/cargo/items/anyOf/0/properties/cargo_quantity",
                                                            "type": "number",
                                                            "title": "The cargo_quantity schema",
                                                            "description": "The total.",
                                                            "default": 0,
                                                            "examples": [
                                                                400
                                                            ]
                                                        },
                                                        "cargo_quantity_unit_of_measure": {
                                                            "$id": "#/properties/message/properties/containers/items/anyOf/0/properties/cargo/items/anyOf/0/properties/cargo_quantity_unit_of_measure",
                                                            "type": "string",
                                                            "title": "The cargo_quantity_unit_of_measure schema",
                                                            "description": "What measurement is used for the quantity supplied.",
                                                            "default": "",
                                                            "examples": [
                                                                "bags"
                                                            ]
                                                        },
                                                        "created_by_date": {
                                                            "$id": "#/properties/message/properties/containers/items/anyOf/0/properties/cargo/items/anyOf/0/properties/created_by_date",
                                                            "type": "string",
                                                            "title": "The created_by_date schema",
                                                            "description": "When the user entry was entered in the system.",
                                                            "default": "",
                                                            "examples": [
                                                                "2020-07-13"
                                                            ]
                                                        },
                                                        "created_by_requestor_username": {
                                                            "$id": "#/properties/message/properties/containers/items/anyOf/0/properties/cargo/items/anyOf/0/properties/created_by_requestor_username",
                                                            "type": "string",
                                                            "title": "The created_by_requestor_username schema",
                                                            "description": "The Cognito username for the person who is requesting the users creation.",
                                                            "default": "",
                                                            "examples": [
                                                                "33d44460-XXXXXXXX-83a09fe4bbcd"
                                                            ]
                                                        },
                                                        "updated_by_date": {
                                                            "$id": "#/properties/message/properties/containers/items/anyOf/0/properties/cargo/items/anyOf/0/properties/updated_by_date",
                                                            "type": "string",
                                                            "title": "The updated_by_date schema",
                                                            "description": "When the user entry was last updated in the system.",
                                                            "default": "",
                                                            "examples": [
                                                                "2020-07-16"
                                                            ]
                                                        },
                                                        "updated_by_requestor_username": {
                                                            "$id": "#/properties/message/properties/containers/items/anyOf/0/properties/cargo/items/anyOf/0/properties/updated_by_requestor_username",
                                                            "type": "string",
                                                            "title": "The updated_by_requestor_username schema",
                                                            "description": "The Cognito username for the person who is requesting the users update.",
                                                            "default": "",
                                                            "examples": [
                                                                "33d44460-XXXXXXXX-83a09fe4bbcd"
                                                            ]
                                                        },
                                                        "cargo_parent_type": {
                                                            "$id": "#/properties/message/properties/containers/items/anyOf/0/properties/cargo/items/anyOf/0/properties/cargo_parent_type",
                                                            "type": "string",
                                                            "title": "The cargo_parent_type schema",
                                                            "description": "Who is the parent of this cargo, shipment or container.",
                                                            "default": "",
                                                            "examples": [
                                                                "CONTAINER"
                                                            ]
                                                        }
                                                    },
                                                    "additionalProperties": false
                                                }
                                            ]
                                        }
                                    }
                                },
                                "additionalProperties": true
                            }
                        ]
                    }
                },
                "cargo": {
                    "$id": "#/properties/message/properties/cargo",
                    "type": "array",
                    "title": "The cargo schema",
                    "description": "This identifies that this section contains shipment cargo items.",
                    "default": [],
                    "examples": [
                        [
                            {
                                "cargo_id": 1,
                                "cargo_row_version": 1,
                                "cargo_type": "Sand",
                                "containers_id": 1,
                                "cargo_gross_weight": 10130,
                                "cargo_gross_unit_of_measure": "KGS",
                                "cargo_quantity": 400,
                                "cargo_quantity_unit_of_measure": "bags",
                                "created_by_date": "2020-07-13",
                                "created_by_requestor_username": "33d44460-XXXXXXXX-83a09fe4bbcd",
                                "updated_by_date": "2020-07-16",
                                "updated_by_requestor_username": "33d44460-XXXXXXXX-83a09fe4bbcd",
                                "cargo_parent_type": "CONTAINER"
                            }
                        ]
                    ],
                    "additionalItems": true,
                    "items": {
                        "$id": "#/properties/message/properties/cargo/items",
                        "anyOf": [
                            {
                                "$id": "#/properties/message/properties/cargo/items/anyOf/0",
                                "type": "object",
                                "title": "The first anyOf schema",
                                "description": "An instance of shipment container cargo.",
                                "default": {},
                                "examples": [
                                    {
                                        "cargo_id": 1,
                                        "cargo_row_version": 1,
                                        "cargo_type": "Sand",
                                        "containers_id": 1,
                                        "cargo_gross_weight": 10130,
                                        "cargo_gross_unit_of_measure": "KGS",
                                        "cargo_quantity": 400,
                                        "cargo_quantity_unit_of_measure": "bags",
                                        "created_by_date": "2020-07-13",
                                        "created_by_requestor_username": "33d44460-XXXXXXXX-83a09fe4bbcd",
                                        "updated_by_date": "2020-07-16",
                                        "updated_by_requestor_username": "33d44460-XXXXXXXX-83a09fe4bbcd",
                                        "cargo_parent_type": "CONTAINER"
                                    }
                                ],
                                "required": [
                                    "cargo_id",
                                    "cargo_row_version",
                                    "cargo_type",
                                    "created_by_date",
                                    "created_by_requestor_username",
                                    "cargo_parent_type"
                                ],
                                "properties": {
                                    "cargo_id": {
                                        "$id": "#/properties/message/properties/cargo/items/anyOf/0/properties/cargo_id",
                                        "type": "number",
                                        "title": "The cargo_id schema",
                                        "description": "This is a system generated id for cargo being shipped.",
                                        "default": 0,
                                        "examples": [
                                            1
                                        ]
                                    },
                                    "cargo_row_version": {
                                        "$id": "#/properties/message/properties/cargo/items/anyOf/0/properties/cargo_row_version",
                                        "type": "number",
                                        "title": "The cargo_row_version schema",
                                        "description": "This is a system generated number that is used to control updates to the record.",
                                        "default": 0,
                                        "examples": [
                                            1
                                        ]
                                    },
                                    "cargo_type": {
                                        "$id": "#/properties/message/properties/cargo/items/anyOf/0/properties/cargo_type",
                                        "type": "string",
                                        "title": "The cargo_type schema",
                                        "description": "A general name of what good or product is being conveyed.",
                                        "default": "",
                                        "examples": [
                                            "Sand"
                                        ]
                                    },
                                    "containers_id": {
                                        "$id": "#/properties/message/properties/cargo/items/anyOf/0/properties/containers_id",
                                        "type": "number",
                                        "title": "The containers_id schema",
                                        "description": "This is the system generated id that identifies the container.",
                                        "default": 0,
                                        "examples": [
                                            1
                                        ]
                                    },
                                    "cargo_gross_weight": {
                                        "$id": "#/properties/message/properties/cargo/items/anyOf/0/properties/cargo_gross_weight",
                                        "type": "number",
                                        "title": "The cargo_gross_weight schema",
                                        "description": "The gross weight of the cargo.",
                                        "default": 0,
                                        "examples": [
                                            10130
                                        ]
                                    },
                                    "cargo_gross_unit_of_measure": {
                                        "$id": "#/properties/message/properties/cargo/items/anyOf/0/properties/cargo_gross_unit_of_measure",
                                        "type": "string",
                                        "title": "The cargo_gross_unit_of_measure schema",
                                        "description": "What measurement is used for the weight supplied.",
                                        "default": "",
                                        "examples": [
                                            "KGS"
                                        ]
                                    },
                                    "cargo_quantity": {
                                        "$id": "#/properties/message/properties/cargo/items/anyOf/0/properties/cargo_quantity",
                                        "type": "number",
                                        "title": "The cargo_quantity schema",
                                        "description": "The total.",
                                        "default": 0,
                                        "examples": [
                                            400
                                        ]
                                    },
                                    "cargo_quantity_unit_of_measure": {
                                        "$id": "#/properties/message/properties/cargo/items/anyOf/0/properties/cargo_quantity_unit_of_measure",
                                        "type": "string",
                                        "title": "The cargo_quantity_unit_of_measure schema",
                                        "description": "What measurement is used for the quantity supplied.",
                                        "default": "",
                                        "examples": [
                                            "bags"
                                        ]
                                    },
                                    "created_by_date": {
                                        "$id": "#/properties/message/properties/cargo/items/anyOf/0/properties/created_by_date",
                                        "type": "string",
                                        "title": "The created_by_date schema",
                                        "description": "When the user entry was entered in the system.",
                                        "default": "",
                                        "examples": [
                                            "2020-07-13"
                                        ]
                                    },
                                    "created_by_requestor_username": {
                                        "$id": "#/properties/message/properties/cargo/items/anyOf/0/properties/created_by_requestor_username",
                                        "type": "string",
                                        "title": "The created_by_requestor_username schema",
                                        "description": "The Cognito username for the person who is requesting the users creation.",
                                        "default": "",
                                        "examples": [
                                            "33d44460-XXXXXXXX-83a09fe4bbcd"
                                        ]
                                    },
                                    "updated_by_date": {
                                        "$id": "#/properties/message/properties/cargo/items/anyOf/0/properties/updated_by_date",
                                        "type": "string",
                                        "title": "The updated_by_date schema",
                                        "description": "When the user entry was last updated in the system.",
                                        "default": "",
                                        "examples": [
                                            "2020-07-16"
                                        ]
                                    },
                                    "updated_by_requestor_username": {
                                        "$id": "#/properties/message/properties/cargo/items/anyOf/0/properties/updated_by_requestor_username",
                                        "type": "string",
                                        "title": "The updated_by_requestor_username schema",
                                        "description": "The Cognito username for the person who is requesting the users update.",
                                        "default": "",
                                        "examples": [
                                            "33d44460-XXXXXXXX-83a09fe4bbcd"
                                        ]
                                    },
                                    "cargo_parent_type": {
                                        "$id": "#/properties/message/properties/cargo/items/anyOf/0/properties/cargo_parent_type",
                                        "type": "string",
                                        "title": "The cargo_parent_type schema",
                                        "description": "Who is the parent of this cargo, shipment or container.",
                                        "default": "",
                                        "examples": [
                                            "CONTAINER"
                                        ]
                                    }
                                },
                                "additionalProperties": true
                            }
                        ]
                    }
                }
            },
            "additionalProperties": true
        }
    },
    "additionalProperties": true
}