{
  "$schema": "http://json-schema.org/draft-07/schema",
  "$id": "http://example.com/example.json",
  "type": "object",
  "title": "The root schema",
  "description": "The root schema comprises the entire JSON document.",
  "default": {},
  "examples": [
    {
      "message-id": "test",
      "message": [
        {
          "notes_id": 203,
          "organizations_id": 10039,
          "notes_owner_micro_service": "JOBCARDS",
          "notes_owner_key": "10048",
          "notes_type": "JOBCARD",
          "notes_note": "{\"status\":\"DELAYED\",\"comment\":\"Mechanical breakdown\",\"originalDeliveryDate\":\"2020/10/07\",\"newDeliveryDate\":\"2020/10/07\",\"originalReturnDate\":\"2020/10/08\",\"newReturnDate\":\"2020/10/08\",\"triplocationhistory_id\":1021}",
          "created_by_date": "2020-10-06T00:00:00Z",
          "created_by_requestor_username": "3b67e815-dbce-4a57-a3d9-f93ece925407",
          "created_timestamp": "2020-10-06T13:53:57.892705Z"
        },
        {
          "notes_id": 189,
          "organizations_id": 10039,
          "notes_owner_micro_service": "JOBCARDS",
          "notes_owner_key": "10054",
          "notes_type": "JOBCARD",
          "notes_note": "{\"status\":\"ONTIME\",\"comment\":\"Ontime\",\"originalDeliveryDate\":\"2020/09/21\",\"newDeliveryDate\":\"2020/09/21\",\"originalReturnDate\":\"2020/09/22\",\"newReturnDate\":\"2020/09/22\",\"triplocationhistory_id\":1014}",
          "created_by_date": "2020-09-17T00:00:00Z",
          "created_by_requestor_username": "3b67e815-dbce-4a57-a3d9-f93ece925407",
          "created_timestamp": "2020-09-17T05:03:20.282338Z"
        }
      ]
    }
  ],
  "required": [
    "message-id",
    "message"
  ],
  "properties": {
    "message-id": {
      "$id": "#/properties/message-id",
      "type": "string",
      "title": "The message-id schema",
      "description": "An explanation about the purpose of this instance.",
      "default": "",
      "examples": [
        "test"
      ]
    },
    "message": {
      "$id": "#/properties/message",
      "type": "array",
      "title": "The message schema",
      "description": "An explanation about the purpose of this instance.",
      "default": [],
      "examples": [
        [
          {
            "notes_id": 203,
            "organizations_id": 10039,
            "notes_owner_micro_service": "JOBCARDS",
            "notes_owner_key": "10048",
            "notes_type": "JOBCARD",
            "notes_note": "{\"status\":\"DELAYED\",\"comment\":\"Mechanical breakdown\",\"originalDeliveryDate\":\"2020/10/07\",\"newDeliveryDate\":\"2020/10/07\",\"originalReturnDate\":\"2020/10/08\",\"newReturnDate\":\"2020/10/08\",\"triplocationhistory_id\":1021}",
            "created_by_date": "2020-10-06T00:00:00Z",
            "created_by_requestor_username": "3b67e815-dbce-4a57-a3d9-f93ece925407",
            "created_timestamp": "2020-10-06T13:53:57.892705Z"
          },
          {
            "notes_id": 189,
            "organizations_id": 10039,
            "notes_owner_micro_service": "JOBCARDS",
            "notes_owner_key": "10054",
            "notes_type": "JOBCARD",
            "notes_note": "{\"status\":\"ONTIME\",\"comment\":\"Ontime\",\"originalDeliveryDate\":\"2020/09/21\",\"newDeliveryDate\":\"2020/09/21\",\"originalReturnDate\":\"2020/09/22\",\"newReturnDate\":\"2020/09/22\",\"triplocationhistory_id\":1014}",
            "created_by_date": "2020-09-17T00:00:00Z",
            "created_by_requestor_username": "3b67e815-dbce-4a57-a3d9-f93ece925407",
            "created_timestamp": "2020-09-17T05:03:20.282338Z"
          }
        ]
      ],
      "additionalItems": true,
      "items": {
        "$id": "#/properties/message/items",
        "anyOf": [
          {
            "$id": "#/properties/message/items/anyOf/0",
            "type": "object",
            "title": "The first anyOf schema",
            "description": "An explanation about the purpose of this instance.",
            "default": {},
            "examples": [
              {
                "notes_id": 203,
                "organizations_id": 10039,
                "notes_owner_micro_service": "JOBCARDS",
                "notes_owner_key": "10048",
                "notes_type": "JOBCARD",
                "notes_note": "{\"status\":\"DELAYED\",\"comment\":\"Mechanical breakdown\",\"originalDeliveryDate\":\"2020/10/07\",\"newDeliveryDate\":\"2020/10/07\",\"originalReturnDate\":\"2020/10/08\",\"newReturnDate\":\"2020/10/08\",\"triplocationhistory_id\":1021}",
                "created_by_date": "2020-10-06T00:00:00Z",
                "created_by_requestor_username": "3b67e815-dbce-4a57-a3d9-f93ece925407",
                "created_timestamp": "2020-10-06T13:53:57.892705Z"
              }
            ],
            "required": [
              "notes_id",
              "organizations_id",
              "notes_owner_micro_service",
              "notes_owner_key",
              "notes_type",
              "notes_note",
              "created_by_date",
              "created_by_requestor_username",
              "created_timestamp"
            ],
            "properties": {
              "notes_id": {
                "$id": "#/properties/message/items/anyOf/0/properties/notes_id",
                "type": "integer",
                "title": "The notes_id schema",
                "description": "This is a system generated id that is used to identify the note.",
                "default": 0,
                "examples": [
                  203
                ]
              },
              "organizations_id": {
                "$id": "#/properties/message/items/anyOf/0/properties/organizations_id",
                "type": "integer",
                "title": "The organizations_id schema",
                "description": "This is a system generated id that is used to restrict access to customers' data.",
                "default": 0,
                "examples": [
                  10039
                ]
              },
              "notes_owner_micro_service": {
                "$id": "#/properties/message/items/anyOf/0/properties/notes_owner_micro_service",
                "type": "string",
                "title": "The notes_owner_micro_service schema",
                "description": "This is the Micro service holding the note source table.",
                "default": "",
                "examples": [
                  "JOBCARDS"
                ]
              },
              "notes_owner_key": {
                "$id": "#/properties/message/items/anyOf/0/properties/notes_owner_key",
                "type": "string",
                "title": "The notes_owner_key schema",
                "description": "This is a system generated ids that is used to restrict access to micro-service data. This is the source table primary key field value.",
                "default": "",
                "examples": [
                  "10048"
                ]
              },
              "notes_type": {
                "$id": "#/properties/message/items/anyOf/0/properties/notes_type",
                "type": "string",
                "title": "The notes_type schema",
                "description": "This is the type of note.",
                "default": "",
                "examples": [
                  "JOBCARD"
                ]
              },
              "notes_note": {
                "$id": "#/properties/message/items/anyOf/0/properties/notes_note",
                "type": "string",
                "title": "The notes_note schema",
                "description": "This is the note.",
                "default": "",
                "examples": [
                  "{\"status\":\"DELAYED\",\"comment\":\"Mechanical breakdown\",\"originalDeliveryDate\":\"2020/10/07\",\"newDeliveryDate\":\"2020/10/07\",\"originalReturnDate\":\"2020/10/08\",\"newReturnDate\":\"2020/10/08\",\"triplocationhistory_id\":1021}"
                ]
              },
              "created_by_date": {
                "$id": "#/properties/message/items/anyOf/0/properties/created_by_date",
                "type": "string",
                "title": "The created_by_date schema",
                "description": "When the user entry was entered in the system.",
                "default": "",
                "examples": [
                  "2020-10-06T00:00:00Z"
                ]
              },
              "created_by_requestor_username": {
                "$id": "#/properties/message/items/anyOf/0/properties/created_by_requestor_username",
                "type": "string",
                "title": "The created_by_requestor_username schema",
                "description": "The Cognito username for the person who made the request.",
                "default": "",
                "examples": [
                  "3b67e815-dbce-4a57-a3d9-f93ece925407"
                ]
              },
              "created_timestamp": {
                "$id": "#/properties/message/items/anyOf/0/properties/created_timestamp",
                "type": "string",
                "title": "The created_timestamp schema",
                "description": "This is the specific date and time 'stamped' when note(s) was/were added.",
                "default": "",
                "examples": [
                  "2020-10-06T13:53:57.892705Z"
                ]
              }
            },
            "additionalProperties": true
          }
        ]
      }
    }
  },
  "additionalProperties": true
}