{
  "$schema": "http://json-schema.org/draft-07/schema",
  "$id": "http://example.com/example.json",
  "type": "object",
  "title": "The root schema",
  "description": "The root schema comprises the entire JSON document.",
  "default": {},
  "examples": [
    {
      "message-id": "test-id",
      "json-web-token": "FAKE TOKEN",
      "aws-user-name": "508a5cf3-2603-4ed0-bdb4-3ccb5f67ce00",
      "role-list": [
        "CLIENT",
        "USER"
      ],
      "organizations-id": 10036,
      "notes-owner-key": [
        "10000",
        "1"
      ],
      "sort-order": {
        "notes-owner-key": "ASC"
      },
      "record-limit-count": 10,
      "record-offset": 0
    }
  ],
  "required": [
    "message-id",
    "json-web-token",
    "aws-user-name",
    "role-list",
    "organizations-id",
    "notes-owner-key",
    "sort-order",
    "record-limit-count",
    "record-offset"
  ],
  "properties": {
    "message-id": {
      "$id": "#/properties/message-id",
      "type": "string",
      "title": "The message-id schema",
      "description": "This is used to uniquely identify devices.",
      "default": "",
      "examples": [
        "test-id"
      ]
    },
    "json-web-token": {
      "$id": "#/properties/json-web-token",
      "type": "string",
      "title": "The json-web-token schema",
      "description": "This is used to authenticate users.",
      "default": "",
      "examples": [
        "FAKE TOKEN"
      ]
    },
    "aws-user-name": {
      "$id": "#/properties/aws-user-name",
      "type": "string",
      "title": "The aws-user-name schema",
      "description": "The Cognito username for the person who is making the request.",
      "default": "",
      "examples": [
        "508a5cf3-2603-4ed0-bdb4-3ccb5f67ce00"
      ]
    },
    "role-list": {
      "$id": "#/properties/role-list",
      "type": "array",
      "title": "The role-list schema",
      "description": "This determines which actions user can perform.",
      "default": [],
      "examples": [
        [
          "CLIENT",
          "USER"
        ]
      ],
      "additionalItems": true,
      "items": {
        "$id": "#/properties/role-list/items",
        "anyOf": [
          {
            "$id": "#/properties/role-list/items/anyOf/0",
            "type": "string",
            "title": "The first anyOf schema",
            "description": "An explanation about the purpose of this instance.",
            "default": "",
            "examples": [
              "CLIENT",
              "USER"
            ]
          }
        ]
      }
    },
    "organizations-id": {
      "$id": "#/properties/organizations-id",
      "type": "integer",
      "title": "The organizations-id schema",
      "description": "This is a system generated id that is used to restrict access to customers data.",
      "default": 0,
      "examples": [
        10036
      ]
    },
    "notes-owner-key": {
      "$id": "#/properties/notes-owner-key",
      "type": "array",
      "title": "The notes-owner-key schema",
      "description": "This is a system generated id(s) that is used to restrict access to micro-service data. This is the source table primary key field value",
      "default": [],
      "examples": [
        [
          "10000",
          "1"
        ]
      ],
      "additionalItems": true,
      "items": {
        "$id": "#/properties/notes-owner-key/items",
        "anyOf": [
          {
            "$id": "#/properties/notes-owner-key/items/anyOf/0",
            "type": "string",
            "title": "The first anyOf schema",
            "description": "An explanation about the purpose of this instance.",
            "default": "",
            "examples": [
              "10000",
              "1"
            ]
          }
        ]
      }
    },
    "sort-order": {
      "$id": "#/properties/sort-order",
      "type": "object",
      "title": "The sort-order schema",
      "description": "This is the sequence list items will be returned.",
      "default": {},
      "examples": [
        {
          "notes-owner-key": "ASC"
        }
      ],
      "required": [
        "notes-owner-key"
      ],
      "properties": {
        "notes-owner-key": {
          "$id": "#/properties/sort-order/properties/notes-owner-key",
          "type": "string",
          "title": "The notes-owner-key schema",
          "description": "List will be sorted in ascending order of notes-owner-key.",
          "default": "",
          "examples": [
            "ASC"
          ]
        }
      },
      "additionalProperties": true
    },
    "record-limit-count": {
      "$id": "#/properties/record-limit-count",
      "type": "integer",
      "title": "The record-limit-count schema",
      "description": "This is the number of records that will be returned.",
      "default": 0,
      "examples": [
        10
      ]
    },
    "record-offset": {
      "$id": "#/properties/record-offset",
      "type": "integer",
      "title": "The record-offset schema",
      "description": "This determines number of rows to skip  before returning records.",
      "default": 0,
      "examples": [
        0
      ]
    }
  },
  "additionalProperties": true
}